13051:
4.8
4.7
4.7
4.1
4.6
3.9
4.1
5.6
4.4
4.3
4.5
4.5
4.8
4
4.4
4.1
4.6
4.5
4.5
4.2
4.5
3.7
4.1
4.2
4.3
4.1
4.8
3.8
4.8
4.1
3.6
4.7
4
4.4
4.6
5.6
4.3
4.5
4
4
4.4
4.7
4.2
5.5
5.3
3.8
1306:
3.9
3.2
3.4
3.9
5.1
4.1
3.7
3.8
4
2.5
4.4
3.8
4
3.5
4.4
4.7
3.7
4.5
3.6
4.5
5.2
4.6
3.6
4
4
2.7
4.1
3.7
4.2
4.4
4116:
3.4
3.5
2.9
3.2
3.6
3.9
4
4.4
2.1
3.8
3.2
4.7
4117:
3.4
3.2
3.1
3.3
2.7
3.9
2.5
3
3.2
4118:
5.2
2.9
3.4
4.6
4.9
5.1
4.7
4.5
4.2
3.8
4.6
2.3
4.3
3.2
3.5
4.9
2.2
4.9
4.6
4.1
4119:
4.6
4.4
3.3
3
2.4
3.8
2.2
3.9
3.2
2.9
3.2
3.4
3
2.6
3.4
3.1
2.8
4.1
3.1
2.4
3.4
3.2
3.8
3.4
2.5
3.7
2.9
3.3
3.1
3.4
2.9
3.5
3
3.1
3
3.6
3.8
412:
3.4
3.2
2.9
3.7
4120:
3.6
3.8
3.1
3.4
3.3
4121:
3.4
3.2
3.1
4122:
3.3
2.5
8511:
3.9
3.8
3.2
4.2
3.9
3.7
3.7
4
4.2
3.2
3.2
3.6
4.1
3.6
4
3.8
3.8
4.1
3.4
4.9
4
4
3.8
4
4
4.2
3.5
3.7
4.2
3.8
3.8
3.6
4.3
4.4
3.9
3.7
3.4
3.4
4.2
3.1
3.8
4.2
4.8
3.5
4.1
3.5
3.4
3.6
3.7
3.6
4.1
4.2
3.8
3.5
3.8
8512:
3.7
3.1
3.7
3.4
4.1
4
4.1
3.8
3.6
4.6
2.7
3.5
3.4
2.2
3.3
4.7
2.9
3.7
3
3
3
3.5
3.1
3.4
3.7
3.3
3.2
3.2
4
2.9
3.6
2.9
3.7
4.2
3.3
2.7
3.6
8513:
2
2
2.1
2
1.9
3.4
1.5
3
2.2
2.3
2.1
1.3
2.3
1.4
8514:
2.6
2.5
3.2
2.4
2.5
1.5
8515:
3.7
3.9
3.9
3
3.9
4.7
3.7
4
3.1
4.3
3.8
3.9
3.7
4.6
4.7
3.6
3.5
4.1
3.5
3.6
3.8
3.6
2.7
4.1
3.3
3.8
3.1
4.4
4.1
4.4
4.9
3.1
3.5
3.5
3.8
4.1
3.8
3.2
8516:
2.9
3.6
3.6
8517:
3.2
3.9
4.4
4.1
3.9
3.2
3.7
4
4.7
3.5
3.8
3.9
3.5
3.6
4.4
3.8
4.3
3.5
4.2
3.3
4.1
3.4
4
4.7
5
3.5
4.4
3
4.6
3.2
4.1
3.9
8518:
4.5
3.7
4.1
3.5
3.3
3.4
3.4
3.7
3.2
2.6
3.5
4
3.8
3.4
3.3
4.2
3.5
2.9
3
2.6
3.7
8519:
3.2
3
3.9
852:
2
3.2
3.2
2.5
2.4
8520:
1.7
8521:
3.2
2.2
2.5
1.5
3.4
1.9
1.8
2.5
2.2
2.9
2.6
3.6
2.7
2.2
2.8
8522:
3.2
4.2
3.9
3.2
3.9
4.7
3.9
4.1
4.3
5
4.4
3.9
3.5
3.7
3.8
3.4
3.2
3.8
4
3.3
3.5
4.1
3.9
3.1
3.9
4.6
4.3
4.6
3.2
4.6
3.8
8523:
4
4
3.2
3.2
2.7
3.7
3.2
2.9
1.9
2.7
3.4
3.7
2.6
3.1
3.5
2.8
4.2
3.3
2.9
3
3.6
3.1
3.5
3.6
3.3
3.3
3.2
2.9
3.1
3.9
2.5
8524:
3.5
4
4
3.4
4.6
4.2
4
3.5
4.7
3.9
3.5
3.7
3.3
3.7
3.9
3.5
4.2
3.6
4.4
4.2
4.1
4.3
4.6
3.4
3.6
3.9
4
4.7
4.1
4.1
3.7
3.7
3.8
3.8
4.3
3.2
3.7
4.6
3.5
3.6
4.4
3.4
4.1
3.9
4.3
4.3
4.1
4
4
4.8
3.5
4.1
3.7
3.8
3.9
4.8
3.7
4.3
3.7
3.8
3.9
3.9
3.8
4.2
3.6
3.7
3.8
3.9
4.6
4.4
3.4
4
4
4.1
3.4
3.9
4
4.5
4.5
3.4
4.3
4.1
4
3.7
4.4
3.6
3.3
3.9
3.5
3.4
4.1
4
3.9
4.3
3.9
3.4
3.7
3.9
4
3.9
3.3
3.7
3.6
4.1
3.1
3.9
4.1
4.1
4
4
3.9
4
4
3.3
3.5
4.1
4.3
3.7
3.4
4
3.4
3.6
4.8
4.2
3.6
4.8
4.5
3.2
4
4.1
4.4
3.7
4.4
3.6
4.6
3.9
3.7
3.8
3.9
4.2
4.1
3.9
3.6
4.7
4.3
4.1
4.2
3.5
4.4
3.5
3.9
4.7
3.6
3.7
4.5
4.8
4.3
3.7
4.1
3.9
3.8
3.6
4
5
5.2
3.8
4.6
3.9
4.7
3.9
4.4
4.1
3.8
3.8
3.8
4
4.1
4.5
3.7
3.5
3.8
3.7
4.9
4.1
4
4.1
4.1
3.8
3.9
3.6
3.9
4.2
4.2
4.4
4
4.6
4.6
3.9
3.8
3.5
3.5
4
4.9
3.8
3.9
4.1
4.6
4.7
4.5
4.4
4.1
4
4
3.7
5.2
3.7
4.2
3.4
3.7
4.3
3.6
4
3.9
4
4.6
4.1
3.8
4
3.6
3.6
4
3.8
3.6
3.8
3.8
3.6
4.1
4.3
5
3.8
3.3
4
3.9
3.9
3.9
4
4.3
4.2
4.2
4.2
3.6
4.4
3.6
3.8
4
4.4
4.1
4
4.3
4
4.2
3.8
4.4
3.9
4.3
4.1
4.1
4.9
4.4
4.2
4.2
4.3
3.8
3.3
3.8
4.5
4.1
4.1
3.7
3.2
3.3
3.7
4
3.8
3.8
4.9
4
2.9
3.6
3.9
3.9
4
3.7
4.1
3.8
3.4
3.6
4
3.8
3.8
4.6
4.2
4.3
3.4
4.5
3.7
4
4.5
3.7
4.9
3.9
4.3
3.5
4.3
4.5
4
3.7
5
3.9
4.3
4
4.4
4.2
3.7
3.9
3.4
4
3.6
6632:
3.5
3.5
3.4
3.2
3.2
3.6
4.2
4.2
4.1
3.8
3.5
3.8
3.8
3.1
3.1
3.4
4.1
3
3.2
3.5
4
3.6
2.4
3.1
3.4
2.9
2.8
3.8
2.9
3.3
2.4
3.4
3.6
3.9
3.5
2.8
3.8
2.9
4.1
3.8
3.2
3.5
3.1
4
3.2
3.9
3.5
3.5
2.8
3.3
4.1
3.4
3.4
3.1
2.9
2.9
3.7
3
3.8
3.4
3.7
2.8
3.3
3.1
3
3.4
2.8
3.5
3.8
3.4
4.1
4.4
3.2
6633:
4.1
3.9
3.4
3.9
3.2
3.2
4.3
3.8
4.3
3.7
4.1
4.4
4
4.7
4.5
3.4
3.8
4.1
4.7
3.1
4.5
4.1
4.2
4.1
3.5
4.2
4.4
3.6
3.9
3.9
4
3.7
4.2
3.9
3.9
4
4.8
3.9
4.2
3.9
4.6
3.9
4.4
4.4
4.6
4.1
4.1
4.2
4
3.9
4.5
4.4
3.8
4.1
4.5
3.4
4.4
4.2
3.8
3.8
3.4
4
3.7
3.3
4.2
4.2
3.9
3.7
3.9
3.7
4.5
4
3.9
4.5
4.4
4.7
4.2
4.5
4.1
3.9
4.6
4.6
4
3.9
4.1
4.3
3.6
4.2
3.2
5
4.4
4.5
4.1
4.4
4
3.8
4
4.8
4.1
3.7
4.6
3.3
4.3
4.2
4.3
4.6
3.8
4.3
3.6
4.1
5.2
4.1
3.8
5
3.1
4.2
4.1
4.6
4.9
4.6
4.6
4
4.3
4.1
4
3.8
2.8
3.9
3.9
4.2
3.7
3.5
4.3
4.5
4.3
3.2
4.2
4.1
4.3
4.1
3.6
4.2
3.5
4
3.7
4.1
4
4.2
3.2
4.5
4.7
3.6
3.8
4.4
4
3.1
4
4.7
3.3
3.9
4.5
4
4.8
3.7
4.4
4.3
3
4.1
4.2
4.7
4.8
4
4.5
4.1
4
6634:
3.8
3.6
3.3
3.3
2.9
3.9
3.6
4.4
3.4
4.2
3.5
3.7
3.9
4.1
3.6
3
3.2
3.8
2.8
3
3
3.1
3.2
3.7
3.5
3.5
6635:
4.1
3.7
3
3.3
3.8
3.8
4
3.7
3.4
4.4
3.5
4
3.6
4.8
4.3
3.8
3.9
3.8
4.1
3.9
3
3.3
4.6
4.4
3.9
3.2
3.4
3.6
4
3.7
3.6
3.4
4
2.9
3.4
3
3.3
4.4
2.2
3.7
4.2
4.3
4.2
3.3
2.5
4.1
3.5
4
4.8
2.5
3.7
3.7
4.2
3.5
3.8
4
4.5
4.3
3.7
3.2
2.7
3.4
3.6
3.6
3.1
4.1
3.6
3.9
3.6
3.2
3.1
4.2
2.9
3.6
3.4
3.7
3.6
3.5
3.3
3.7
3.8
3.5
3.2
3.4
3.8
3.7
4.1
3.3
3.8
3.7
4.3
4.1
4.3
3.2
3.6
3.1
3.4
4.7
3.7
3.5
4.1
3.6
3.2
3.5
3.8
3.6
3.2
3.7
4.2
3.6
3.7
3.6
3.8
4.3
4.5
3.9
4.2
4.2
3.8
4.8
3.9
4.7
3.4
2.1
3.8
3.9
3.4
3.6
3.8
3.8
6636:
2.3
2.4
2
2.3
2.3
3.1
2.2
1.7
1.9
2.5
3
1.9
6637:
2.8
3.2
3.6
4.1
3.8
3
2.9
3.1
4
2.7
3.3
3.4
3.3
3
3.7
2.8
3.3
2.7
4
3.6
2.9
3
2.7
2.9
3.5
3.2
2.6
3.2
2.1
2.5
3.5
3.9
3.9
3.2
3.5
3.2
4.2
3.6
3.9
4
2.9
3.1
3.2
3.7
3.3
4.3
2.9
3.7
3.4
3.4
3.7
3
3.6
3.1
3.2
3
2.5
2.3
2.9
2.9
3.7
3.6
3.1
2.2
3
3.1
2.5
2.7
2.9
2.3
6638:
2.9
6639:
3.6
3.7
5.1
4
3.6
3.1
3.7
4.1
4.2
4.1
3.6
3.4
3.3
4.2
3.7
3.8
4.6
3.3
3.4
4.1
664:
2.2
2.7
2.8
2.7
2
6640:
1.9
2.4
1.9
2
2.1
2.8
1.8
2.7
2.3
2.6
2.3
2.4
1.9
2
2
1.6
2.9
2.4
1.5
2.2
1.8
2.1
2.7
2.3
2.4
2
1.5
2.2
2.4
1.8
1.8
2.1
6641:
4
4.1
3.8
3.7
4.4
3.4
3.5
2.9
3.5
4.2
3.8
3.9
4
3
4
3
3
3.4
3.8
3.1
3.9
3.8
3.6
3.3
3.9
3.5
3.2
3.6
4
3.7
3.4
3.9
3.7
3.5
4.5
3.1
3.5
4.2
3.4
3.5
3.1
4.7
3.2
6642:
4.5
4.2
4.3
4.3
3.7
3.9
4.2
4.3
3.5
4.2
4.2
3.9
3.3
3.7
5.3
3.7
4.2
4.3
4.4
3.2
4.3
3.5
4
3.8
3.8
4.2
3.9
4.3
3.8
4.1
4.2
3.5
4.3
4.6
3.3
4.7
4.3
4.1
4.2
4.1
3.9
4.7
3.9
3.4
4
4
4.3
4.2
3.8
4
4.3
3.6
3
4.4
3.1
4.3
4.7
4.7
3.8
3.8
4.4
3.7
4.6
3.4
5
4.7
4.4
4.1
3.8
4.5
4.3
4.5
4.1
5.3
4.1
4.6
4.3
4
4
4.5
4.2
4.6
4.5
3.5
4
3.8
3.9
4.4
4.3
5.3
4.3
4.4
4.3
4.1
3.8
4.2
3.4
3
3.9
4
3.2
4.2
3.5
4.4
4.4
3.9
4.6
4.3
4.4
4.3
4.4
3.7
3.4
3.4
3.2
3.7
4.5
3.8
2
4
4.4
4.3
3.9
4
4.2
4.4
4.2
4.5
4.3
4
4.1
3.7
3.9
3.4
3.2
4.2
4.2
4.3
4.1
3.7
3.9
4
5.1
4.2
4
4
3.4
3.6
3.5
4.4
4.3
4.6
4.3
4.2
4.1
3.8
3.5
4.4
4.5
3.4
4.1
3.7
4.1
3.4
4.2
3.6
4.2
4.5
3.7
4
4.7
3.4
3.7
3.5
3.2
4.5
3.9
4.8
4.1
3.7
4.1
4.4
4.2
4.5
4.3
4.5
4.2
4.1
4.3
3.9
3.2
4.1
4.4
3.9
3.2
3.9
4
4.6
3.6
4.9
4.2
4.1
3.2
4.2
4.4
3.9
3.7
4.7
3.7
RMSE: 0.96
